image type;celulose concentration;zoom;total found circles;hough circles;drawn circles;total radius;hough radius;drawn radius;total avg radius;hough avg radius;drawn avg radius;deleted circles;date
NATIVE;0;10;422;332;90;{"2": 2, "3": 1, "4": 7, "5": 20, "6": 26, "7": 48, "8": 41, "9": 34, "10": 56, "11": 42, "12": 23, "13": 21, "14": 18, "15": 9, "16": 19, "17": 12, "18": 10, "19": 11, "20": 8, "21": 4, "22": 4, "23": 3, "24": 2, "25": 1};{"4": 7, "5": 16, "6": 26, "7": 24, "8": 20, "9": 34, "10": 47, "11": 27, "12": 17, "13": 21, "14": 14, "15": 9, "16": 18, "17": 11, "18": 10, "19": 11, "20": 8, "21": 3, "22": 4, "23": 3, "24": 2};{"2": 2, "3": 1, "5": 4, "7": 24, "8": 21, "10": 9, "11": 15, "12": 6, "14": 4, "16": 1, "17": 1, "21": 1, "25": 1};11.296854804;11.7688937568;9.55555555556;6;06-16-2018 23:51:11
NATIVE;0;25;49;48;1;{"1": 1, "2": 3, "3": 3, "4": 3, "5": 1, "7": 3, "8": 1, "9": 3, "10": 3, "11": 5, "13": 1, "14": 8, "15": 3, "16": 1, "17": 2, "18": 2, "20": 3, "21": 2, "23": 1};{"1": 1, "2": 3, "3": 3, "4": 2, "5": 1, "7": 3, "8": 1, "9": 3, "10": 3, "11": 5, "13": 1, "14": 8, "15": 3, "16": 1, "17": 2, "18": 2, "20": 3, "21": 2, "23": 1};{"4": 1};11.8367346939;11.9830246914;4.81481481481;0;06-17-2018 09:48:36
NATIVE;0;25;96;85;11;{"2": 1, "3": 3, "4": 6, "5": 8, "6": 3, "7": 2, "8": 5, "9": 5, "10": 2, "11": 5, "12": 12, "13": 7, "14": 5, "15": 6, "16": 6, "17": 7, "18": 4, "19": 3, "21": 2, "22": 1, "24": 2, "26": 1};{"2": 1, "3": 3, "4": 5, "5": 6, "6": 2, "7": 1, "8": 5, "9": 5, "10": 1, "11": 2, "12": 12, "13": 6, "14": 5, "15": 5, "16": 6, "17": 7, "18": 4, "19": 3, "21": 2, "22": 1, "24": 2, "26": 1};{"4": 1, "5": 2, "6": 1, "7": 1, "10": 1, "11": 3, "13": 1, "15": 1};12.4575617284;12.8453159041;9.46127946128;16;06-17-2018 10:03:31
NATIVE;0;25;37;36;1;{"1": 1, "2": 2, "3": 1, "4": 3, "5": 2, "7": 1, "9": 2, "10": 3, "11": 2, "13": 2, "14": 5, "15": 8, "17": 1, "18": 2, "20": 2};{"1": 1, "2": 2, "3": 1, "4": 3, "5": 1, "7": 1, "9": 2, "10": 3, "11": 2, "13": 2, "14": 5, "15": 8, "17": 1, "18": 2, "20": 2};{"5": 1};11.6816816817;11.8621399177;5.18518518519;0;06-17-2018 10:07:43
NATIVE;2;10;372;299;73;{"4": 3, "5": 7, "6": 11, "7": 32, "8": 30, "9": 26, "10": 61, "11": 27, "12": 35, "13": 14, "14": 32, "15": 7, "16": 19, "17": 9, "18": 9, "19": 5, "20": 15, "21": 8, "22": 1, "23": 7, "24": 5, "25": 3, "26": 1, "27": 1, "30": 2, "31": 2};{"4": 3, "5": 6, "6": 11, "7": 21, "8": 25, "9": 26, "10": 58, "11": 16, "12": 21, "13": 14, "14": 20, "15": 7, "16": 12, "17": 6, "18": 9, "19": 4, "20": 14, "21": 6, "22": 1, "23": 5, "24": 5, "25": 3, "26": 1, "27": 1, "30": 2, "31": 2};{"5": 1, "7": 11, "8": 5, "10": 3, "11": 11, "12": 14, "14": 12, "16": 7, "17": 3, "19": 1, "20": 1, "21": 2, "23": 2};12.8470185728;12.851930678;12.8268991283;16;06-17-2018 10:18:23
NATIVE;2;10;356;245;111;{"0": 2, "2": 2, "3": 2, "4": 4, "5": 19, "6": 14, "7": 43, "8": 33, "9": 12, "10": 49, "11": 31, "12": 26, "13": 16, "14": 25, "15": 10, "16": 19, "17": 12, "18": 9, "19": 8, "20": 6, "21": 3, "22": 3, "23": 3, "24": 2, "25": 2, "29": 1};{"4": 4, "5": 13, "6": 14, "7": 24, "8": 19, "9": 12, "10": 39, "11": 14, "12": 12, "13": 16, "14": 8, "15": 10, "16": 14, "17": 10, "18": 9, "19": 8, "20": 6, "21": 3, "22": 3, "23": 3, "24": 2, "25": 2};{"0": 2, "2": 2, "3": 2, "5": 6, "7": 19, "8": 14, "10": 10, "11": 17, "12": 14, "14": 17, "16": 5, "17": 2, "29": 1};11.6598569969;12.159554731;10.5569205569;3;06-17-2018 10:28:56
NATIVE;2;10;357;255;102;{"2": 1, "3": 1, "4": 8, "5": 15, "6": 24, "7": 23, "8": 34, "9": 25, "10": 40, "11": 34, "12": 22, "13": 13, "14": 32, "15": 10, "16": 16, "17": 15, "18": 12, "19": 6, "20": 9, "21": 2, "22": 2, "23": 5, "24": 2, "25": 4, "26": 1, "27": 1};{"4": 8, "5": 11, "6": 24, "7": 14, "8": 12, "9": 25, "10": 29, "11": 15, "12": 11, "13": 13, "14": 17, "15": 10, "16": 11, "17": 13, "18": 12, "19": 6, "20": 8, "21": 1, "22": 2, "23": 5, "24": 2, "25": 4, "26": 1, "27": 1};{"2": 1, "3": 1, "5": 4, "7": 9, "8": 22, "10": 11, "11": 19, "12": 11, "14": 15, "16": 5, "17": 2, "20": 1, "21": 1};12.0244461421;12.4206773619;11.0338680927;12;06-17-2018 10:44:56
NATIVE;2;10;414;268;146;{"0": 3, "2": 3, "3": 5, "4": 10, "5": 29, "6": 25, "7": 31, "8": 35, "9": 14, "10": 56, "11": 37, "12": 42, "13": 13, "14": 25, "15": 15, "16": 26, "17": 16, "18": 11, "19": 8, "20": 7, "21": 2, "23": 1};{"3": 1, "4": 10, "5": 21, "6": 25, "7": 18, "8": 14, "9": 14, "10": 47, "11": 16, "12": 18, "13": 13, "14": 7, "15": 15, "16": 14, "17": 10, "18": 11, "19": 5, "20": 7, "21": 2};{"0": 3, "2": 3, "3": 4, "5": 8, "7": 13, "8": 21, "10": 9, "11": 21, "12": 24, "14": 18, "16": 12, "17": 6, "19": 3, "23": 1};11.1506368028;11.1804613297;11.095890411;3;06-17-2018 10:55:29
NATIVE;2;10;495;345;150;{"2": 2, "3": 1, "4": 4, "5": 16, "6": 13, "7": 27, "8": 48, "9": 42, "10": 55, "11": 47, "12": 46, "13": 20, "14": 48, "15": 21, "16": 22, "17": 17, "18": 13, "19": 14, "20": 12, "21": 10, "22": 3, "23": 6, "24": 7, "30": 1};{"4": 4, "5": 11, "6": 13, "7": 10, "8": 25, "9": 42, "10": 43, "11": 25, "12": 26, "13": 20, "14": 21, "15": 21, "16": 13, "17": 13, "18": 13, "19": 10, "20": 11, "21": 9, "22": 3, "23": 5, "24": 7};{"2": 2, "3": 1, "5": 5, "7": 17, "8": 23, "10": 12, "11": 22, "12": 20, "14": 27, "16": 9, "17": 4, "19": 4, "20": 1, "21": 1, "23": 1, "30": 1};12.536271809;12.8695652174;11.7696969697;3;06-17-2018 18:28:30
NATIVE;2;25;126;106;20;{"1": 1, "2": 6, "3": 4, "4": 11, "5": 15, "6": 8, "7": 17, "8": 10, "9": 11, "10": 9, "11": 6, "12": 5, "14": 5, "15": 6, "16": 3, "17": 1, "19": 1, "20": 3, "22": 3, "24": 1};{"2": 6, "3": 4, "4": 10, "5": 8, "6": 6, "7": 15, "8": 10, "9": 10, "10": 8, "11": 5, "12": 3, "14": 5, "15": 6, "16": 2, "17": 1, "19": 1, "20": 3, "22": 3};{"1": 1, "4": 1, "5": 7, "6": 2, "7": 2, "9": 1, "10": 1, "11": 1, "12": 2, "16": 1, "24": 1};9.2328042328;9.36757512229;8.51851851852;19;06-17-2018 18:38:27
NATIVE;2;25;55;49;6;{"2": 5, "3": 4, "4": 3, "5": 6, "6": 4, "7": 4, "8": 2, "9": 1, "10": 2, "11": 2, "12": 6, "13": 2, "14": 3, "16": 4, "17": 3, "18": 2, "22": 1, "25": 1};{"2": 5, "3": 3, "4": 3, "5": 4, "6": 4, "7": 4, "8": 2, "9": 1, "10": 2, "11": 2, "12": 5, "13": 2, "14": 3, "16": 2, "17": 3, "18": 2, "22": 1, "25": 1};{"16": 2, "3": 1, "12": 1, "5": 2};9.9797979798;9.98488284203;9.93827160494;2;06-17-2018 18:54:02
NATIVE;10;10;481;351;130;{"2": 2, "3": 8, "4": 20, "5": 45, "6": 26, "7": 48, "8": 42, "9": 27, "10": 54, "11": 42, "12": 32, "13": 13, "14": 35, "15": 11, "16": 24, "17": 12, "18": 5, "19": 11, "20": 9, "21": 9, "22": 6};{"3": 6, "4": 20, "5": 39, "6": 26, "7": 35, "8": 23, "9": 27, "10": 44, "11": 22, "12": 15, "13": 13, "14": 12, "15": 11, "16": 15, "17": 12, "18": 5, "19": 5, "20": 7, "21": 8, "22": 6};{"2": 2, "3": 2, "5": 6, "7": 13, "8": 19, "10": 10, "11": 20, "12": 17, "14": 23, "16": 9, "19": 6, "20": 2, "21": 1};10.8183708184;10.5283605284;11.6013986014;4;06-17-2018 19:21:46
NATIVE;10;10;375;248;127;{"0": 1, "4": 6, "5": 14, "6": 19, "7": 20, "8": 29, "9": 18, "10": 44, "11": 32, "12": 37, "13": 14, "14": 44, "15": 10, "16": 28, "17": 12, "18": 8, "19": 10, "20": 11, "21": 3, "22": 4, "23": 2, "24": 4, "25": 2, "26": 1, "27": 1, "28": 1};{"4": 6, "5": 12, "6": 19, "7": 10, "8": 17, "9": 18, "10": 37, "11": 11, "12": 15, "13": 14, "14": 20, "15": 10, "16": 12, "17": 8, "18": 8, "19": 5, "20": 11, "21": 2, "22": 4, "23": 1, "24": 4, "25": 1, "26": 1, "27": 1, "28": 1};{"0": 1, "5": 2, "7": 10, "8": 12, "10": 7, "11": 21, "12": 22, "14": 24, "16": 16, "17": 4, "19": 5, "21": 1, "23": 1, "25": 1};12.6012121212;12.4926686217;12.8131710809;11;06-17-2018 19:39:21
NATIVE;10;10;341;167;174;{"0": 1, "3": 2, "4": 3, "5": 8, "6": 11, "7": 22, "8": 26, "9": 9, "10": 32, "11": 25, "12": 46, "13": 14, "14": 33, "15": 7, "16": 24, "17": 14, "18": 3, "19": 18, "20": 13, "21": 6, "22": 4, "23": 8, "24": 4, "25": 2, "26": 2, "28": 1, "29": 3};{"4": 3, "5": 4, "6": 11, "7": 4, "8": 9, "9": 9, "10": 21, "11": 6, "12": 19, "13": 14, "14": 10, "15": 7, "16": 7, "17": 6, "18": 3, "19": 6, "20": 10, "21": 3, "22": 4, "23": 1, "24": 4, "25": 2, "26": 1, "29": 3};{"0": 1, "3": 2, "5": 4, "7": 18, "8": 17, "10": 11, "11": 19, "12": 27, "14": 23, "16": 17, "17": 8, "19": 12, "20": 3, "21": 3, "23": 7, "26": 1, "28": 1};13.5057318049;13.7724550898;13.249738767;3;06-17-2018 20:00:27
NATIVE;10;10;556;391;165;{"0": 1, "2": 1, "3": 3, "4": 9, "5": 26, "6": 26, "7": 39, "8": 34, "9": 36, "10": 76, "11": 50, "12": 60, "13": 25, "14": 55, "15": 18, "16": 24, "17": 19, "18": 15, "19": 23, "20": 13, "23": 2, "28": 1};{"3": 1, "4": 9, "5": 19, "6": 26, "7": 21, "8": 23, "9": 36, "10": 62, "11": 23, "12": 35, "13": 25, "14": 27, "15": 18, "16": 16, "17": 10, "18": 15, "19": 15, "20": 10};{"0": 1, "2": 1, "3": 2, "5": 7, "7": 18, "8": 11, "10": 14, "11": 27, "12": 25, "14": 28, "16": 8, "17": 9, "19": 8, "20": 3, "23": 2, "28": 1};11.8443427077;11.6484538479;12.3085399449;3;06-17-2018 20:27:08
